{
  "schema_url": "https://gitlab.com/cyverse/cacao-common/-/raw/master/template/metadata-schemas/v2/schema.json",
  "name": "test k8s deployment",
  "author": "John Xu",
  "author_email": "",
  "description": "just some deployment manifests",
  "template_type": "k8s",
  "purpose": "general",
  "cacao_pre_tasks": [],
  "cacao_post_tasks": [],
  "parameters": []
}
